/* XPM */
static char * dock_12_xpm[] = {
"12 12 5 1",
" 	c None",
".	c #000000",
"+	c #949194",
"@	c #5A5D5A",
"#	c #FFFFFF",
"            ",
"            ",
"            ",
"  ......... ",
"  .....+++@ ",
"  @###@+++@ ",
"  @###@+++@ ",
"  @###@+++@ ",
"  @###@+++@ ",
"  @###@+++@ ",
"  @@@@@@@@@ ",
"            "};
