/* XPM */
static char * top_layer_xpm[] = {
"24 24 4 1",
" 	c None",
".	c #000000",
"+	c #FFFFFF",
"@	c #949194",
"                        ",
"                        ",
"                        ",
"     .      ........... ",
"     ..    .+++++++++.  ",
" .......  .+++++++++.   ",
"     ..  .+++++++++.... ",
"     .  .+++++++++.++.  ",
"       ...........++.   ",
"         .+++++++++...  ",
"        .+++++++++.+.   ",
"       ...........+.    ",
"      ...+++++++++.     ",
"     .+.+++++++++.      ",
"    .+...........       ",
"   .+++++++++.........@ ",
"  .+++++++++.+++++++.@  ",
" ...........+++++++.@@  ",
"        .+++++++++.@@   ",
"       .+++++++++.@@    ",
"      ...........@@     ",
"       @@@@@@@@@@@      ",
"                        ",
"                        "};
